^C:\USERS\LALIT\DOCUMENTS\VISUAL STUDIO 2010\PROJECTS\SUDOKU_C++\SUDOKU_C++\DEBUG\SUDOKU_C++.EXE.INTERMEDIATE.MANIFEST
C:\WINDOWS\MICROSOFT.NET\FRAMEWORK\V2.0.50727\MSCORWKS.DLL
C:\WINDOWS\MICROSOFT.NET\FRAMEWORK\V4.0.30319\CLR.DLL
C:\PROGRAM FILES (X86)\MICROSOFT SDKS\WINDOWS\V7.0A\BIN\MT.EXE.CONFIG
C:\USERS\LALIT\DOCUMENTS\VISUAL STUDIO 2010\PROJECTS\SUDOKU_C++\DEBUG\SUDOKU_C++.EXE
^C:\USERS\LALIT\MY_STORE\SUDOKU_C++\SUDOKU_C++\DEBUG\SUDOKU_C++.EXE.INTERMEDIATE.MANIFEST
C:\WINDOWS\MICROSOFT.NET\FRAMEWORK\V2.0.50727\MSCORWKS.DLL
C:\WINDOWS\MICROSOFT.NET\FRAMEWORK\V4.0.30319\CLR.DLL
C:\PROGRAM FILES (X86)\MICROSOFT SDKS\WINDOWS\V7.0A\BIN\MT.EXE.CONFIG
C:\USERS\LALIT\MY_STORE\SUDOKU_C++\DEBUG\SUDOKU_C++.EXE
